Alzheimer (Conrado 2014) • nlmixr2lib
…
events <- rxode2::et(time = seq(0, 5 * 365.25, by = 91))
events$AGE         <- 75
events$SEXF        <- 1L
events$APOE4_COUNT <- 0.72
events$CONMED_AD   <- 1L
events
#> ── EventTable with 21 records ──
#> 0 dosing records (see x$get.dosing(); add with add.dosing or et)
#> 21 observation times (see x$get.sampling(); add with add.sampling or et)
#> ── First part of x: ──
#> # A tibble: 21 × 2
#>     time evid         
#>    <dbl> <evid>       
#>  1     0 0:Observation
#>  2    91 0:Observation
#>  3   182 0:Observation
#>  4   273 0:Observation
#>  5   364 0:Observation
#>  6   455 0:Observation
#>  7   546 0:Observation
#>  8   637 0:Observation
#>  9   728 0:Observation
#> 10   819 0:Observation
#> # ℹ 11 more rows
…
