Markov modeling • nlmixr2lib
…
#>    • gradient problems with initial estimate and covariance; see $scaleInfo 
#>    • last objective function was not at minimum, possible problems in optimization 
#>    • Hessian reset during optimization; (can control by foceiControl(resetHessianAndEta=.)) 
#>    • bad solve during optimization 
#>   Censoring (fit$censInformation): No censoring
#>   Minimization message (fit$message):  
#>     false convergence (8) 
#>   In an ODE system, false convergence may mean "useless" evaluations were performed.
#>   See https://tinyurl.com/yyrrwkce
#>   It could also mean the convergence is poor, check results before accepting fit
#>   You may also try a good derivative free optimization:
#>     nlmixr2(...,control=list(outerOpt="bobyqa"))
#> 
#> ── Fit Data (object fit is a modified tibble): ──
#> # A tibble: 15 × 29
#>   ID     TIME    DV  IPRED linknonetonone cumprnonetonone linknonetomild
#>   <fct> <dbl> <dbl>  <dbl>          <dbl>           <dbl>          <dbl>
#> 1 1         0     0 -2.49       -0.000185           0.500          0.333
#> 2 1         1     0 -0.601      -0.000185           0.500          0.333
#> 3 1         2     0 -2.56       -0.000185           0.500          0.333
#> # ℹ 12 more rows
#> # ℹ 22 more variables: cumprnonetomild <dbl>, prnonetonone <dbl>,
#> #   prnonetomild <dbl>, prnonetomoderate <dbl>, llnone <dbl>,
#> #   linkmildtonone <dbl>, cumprmildtonone <dbl>, linkmildtomild <dbl>,
#> #   cumprmildtomild <dbl>, prmildtonone <dbl>, prmildtomild <dbl>,
#> #   prmildtomoderate <dbl>, llmild <dbl>, linkmoderatetonone <dbl>,
#> #   cumprmoderatetonone <dbl>, linkmoderatetomild <dbl>, …
…
