…
nca_tbl <- as.data.frame(nca_res$result) |>
  filter(PPTESTCD %in% c("cmax", "tmax", "auclast", "half.life")) |>
  group_by(treatment, PPTESTCD) |>
  summarise(
    median = stats::median(PPORRES, na.rm = TRUE),
    p05    = stats::quantile(PPORRES, 0.05, na.rm = TRUE),
    p95    = stats::quantile(PPORRES, 0.95, na.rm = TRUE),
    .groups = "drop"
  ) |>
  mutate(treatment = factor(treatment, levels = paste0(dose_levels, " mg"))) |>
  arrange(treatment, PPTESTCD)
nca_tbl
#> # A tibble: 24 × 5
#>    treatment PPTESTCD  median    p05    p95
#>    <fct>     <chr>      <dbl>  <dbl>  <dbl>
#>  1 3 mg      auclast    7.68   5.37   12.1 
#>  2 3 mg      cmax       0.633  0.444   1.02
#>  3 3 mg      half.life 20.8   16.9    27.0 
#>  4 3 mg      tmax       2      1       3.5 
#>  5 10 mg     auclast   28.3   19.0    50.0 
#>  6 10 mg     cmax       2.62   1.52    4.33
#>  7 10 mg     half.life 18.6   16.4    26.4 
#>  8 10 mg     tmax       2      0.6     2.9 
#>  9 25 mg     auclast   87.6   64.6   137.  
#> 10 25 mg     cmax       8.53   5.00   14.1 
#> # ℹ 14 more rows
```
…
