Sirukumab (Xu 2011) • nlmixr2lib
…
pop <- cohorts %>%
  group_by(treatment, dose_mgkg) %>%
  summarise(
    ID = list(seq_len(n[1])),
    .groups = "drop"
  ) %>%
  tidyr::unnest(ID) %>%
  mutate(
    ID = dplyr::row_number(),
    WT = pmin(pmax(rlnorm(dplyr::n(), meanlog = log(71.3), sdlog = 0.15), 49), 99),
    amt = dose_mgkg * WT
  )

pop
#> # A tibble: 34 × 5
#>    treatment dose_mgkg    ID    WT   amt
#>    <chr>         <dbl> <int> <dbl> <dbl>
#>  1 0.3 mg/kg       0.3     1  64.6  19.4
#>  2 0.3 mg/kg       0.3     2  71.0  21.3
#>  3 0.3 mg/kg       0.3     3  69.3  20.8
#>  4 0.3 mg/kg       0.3     4  62.3  18.7
#>  5 0.3 mg/kg       0.3     5  86.8  26.0
#>  6 0.3 mg/kg       0.3     6  63.0  18.9
#>  7 1 mg/kg         1       7  68.6  68.6
#>  8 1 mg/kg         1       8  73.9  73.9
#>  9 1 mg/kg         1       9  66.9  66.9
#> 10 1 mg/kg         1      10  64.8  64.8
#> # ℹ 24 more rows
…
