Zheng_2016_sifalimumab • nlmixr2lib
…
pop
#> # A tibble: 298 × 7
#>       ID treatment dose_mg    WT BGENE21 STEROID  DOSE
#>    <int> <chr>       <dbl> <dbl>   <dbl>   <int> <dbl>
#>  1     1 200 mg        200  52.6    5.19       1   200
#>  2     2 200 mg        200  80.1    5.96       1   200
#>  3     3 200 mg        200  63.5   15.9        1   200
#>  4     4 200 mg        200  68.6   15.9        1   200
#>  5     5 200 mg        200  39     18.9        0   200
#>  6     6 200 mg        200  60.4   35.5        1   200
#>  7     7 200 mg        200  54.4    8.85       0   200
#>  8     8 200 mg        200  55.3   10.2        1   200
#>  9     9 200 mg        200  69.7   37.3        1   200
#> 10    10 200 mg        200  66.9    4.27       1   200
#> # ℹ 288 more rows
…
